-a="E:\Final_Project\gamedev4-final-project\Library\PlayerScriptAssemblies\Assembly-CSharp.dll"
-a="E:\Final_Project\gamedev4-final-project\Library\PlayerScriptAssemblies\Unity.RenderPipelines.Universal.Shaders.dll"
-a="E:\Final_Project\gamedev4-final-project\Library\PlayerScriptAssemblies\HDRPSamples.dll"
-a="E:\Final_Project\gamedev4-final-project\Library\PlayerScriptAssemblies\Fungus.dll"
-a="E:\Final_Project\gamedev4-final-project\Library\PlayerScriptAssemblies\Unity.ProBuilder.dll"
-a="E:\Final_Project\gamedev4-final-project\Library\PlayerScriptAssemblies\FungusExamples.dll"
-a="E:\Final_Project\gamedev4-final-project\Library\PlayerScriptAssemblies\Unity.InputSystem.dll"
-a="E:\Final_Project\gamedev4-final-project\Library\PlayerScriptAssemblies\Unity.RenderPipelines.Core.ShaderLibrary.dll"
-a="E:\Final_Project\gamedev4-final-project\Library\PlayerScriptAssemblies\UnityEngine.UI.dll"
-a="E:\Final_Project\gamedev4-final-project\Library\PlayerScriptAssemblies\UnityEngine.SpatialTracking.dll"
-a="E:\Final_Project\gamedev4-final-project\Library\PlayerScriptAssemblies\Unity.ProBuilder.Poly2Tri.dll"
-a="E:\Final_Project\gamedev4-final-project\Library\PlayerScriptAssemblies\Cinemachine.dll"
-a="E:\Final_Project\gamedev4-final-project\Library\PlayerScriptAssemblies\Unity.RenderPipeline.Universal.ShaderLibrary.dll"
-a="E:\Final_Project\gamedev4-final-project\Library\PlayerScriptAssemblies\Unity.XR.Management.dll"
-a="E:\Final_Project\gamedev4-final-project\Library\PlayerScriptAssemblies\Unity.RenderPipelines.HighDefinition.Config.Runtime.dll"
-a="E:\Final_Project\gamedev4-final-project\Library\PlayerScriptAssemblies\Unity.RenderPipelines.Universal.Runtime.dll"
-a="E:\Final_Project\gamedev4-final-project\Library\PlayerScriptAssemblies\Unity.VisualEffectGraph.Runtime.dll"
-a="E:\Final_Project\gamedev4-final-project\Library\PlayerScriptAssemblies\UnityEngine.TestRunner.dll"
-a="E:\Final_Project\gamedev4-final-project\Library\PlayerScriptAssemblies\Unity.Timeline.dll"
-a="E:\Final_Project\gamedev4-final-project\Library\PlayerScriptAssemblies\Unity.TextMeshPro.dll"
-a="E:\Final_Project\gamedev4-final-project\Library\PlayerScriptAssemblies\Unity.RenderPipelines.HighDefinition.Runtime.dll"
-a="E:\Final_Project\gamedev4-final-project\Library\PlayerScriptAssemblies\Unity.ProBuilder.Csg.dll"
-a="E:\Final_Project\gamedev4-final-project\Library\PlayerScriptAssemblies\Unity.RenderPipelines.Core.Runtime.dll"
-a="E:\Final_Project\gamedev4-final-project\Library\PlayerScriptAssemblies\Unity.Subsystem.Registration.dll"
-a="E:\Final_Project\gamedev4-final-project\Library\PlayerScriptAssemblies\Unity.VisualScripting.Flow.dll"
-a="E:\Final_Project\gamedev4-final-project\Library\PlayerScriptAssemblies\Unity.VisualScripting.Core.dll"
-a="E:\Final_Project\gamedev4-final-project\Library\PlayerScriptAssemblies\Unity.Mathematics.dll"
-a="E:\Final_Project\gamedev4-final-project\Library\PlayerScriptAssemblies\Unity.ProBuilder.KdTree.dll"
-a="E:\Final_Project\gamedev4-final-project\Library\PlayerScriptAssemblies\Unity.Burst.dll"
-a="E:\Final_Project\gamedev4-final-project\Library\PlayerScriptAssemblies\UnityEngine.XR.LegacyInputHelpers.dll"
-a="E:\Final_Project\gamedev4-final-project\Library\PlayerScriptAssemblies\Unity.ProBuilder.Stl.dll"
-a="E:\Final_Project\gamedev4-final-project\Library\PlayerScriptAssemblies\Unity.RenderPipelines.ShaderGraph.ShaderGraphLibrary.dll"
-a="E:\Final_Project\gamedev4-final-project\Library\PlayerScriptAssemblies\Unity.VisualScripting.State.dll"
-a="E:\Final_Project\gamedev4-final-project\Library\PackageCache\com.unity.burst@1.6.4\Unity.Burst.Unsafe.dll"
-a="E:\Final_Project\gamedev4-final-project\Library\PackageCache\com.unity.burst@1.6.4\Unity.Burst.CodeGen\Unity.Burst.Cecil.Mdb.dll"
-a="E:\Final_Project\gamedev4-final-project\Library\PackageCache\com.unity.burst@1.6.4\Unity.Burst.CodeGen\Unity.Burst.Cecil.Pdb.dll"
-a="E:\Final_Project\gamedev4-final-project\Library\PackageCache\com.unity.burst@1.6.4\Unity.Burst.CodeGen\Unity.Burst.Cecil.dll"
-a="E:\Final_Project\gamedev4-final-project\Library\PackageCache\com.unity.burst@1.6.4\Unity.Burst.CodeGen\Unity.Burst.Cecil.Rocks.dll"
-a="E:\Final_Project\gamedev4-final-project\Library\PackageCache\com.unity.visualscripting@1.7.7\Runtime\VisualScripting.Flow\Dependencies\NCalc\Unity.VisualScripting.Antlr3.Runtime.dll"
-a="E:\Final_Project\gamedev4-final-project\Library\PackageCache\com.unity.cinemachine@2.8.4\Runtime\ThirdParty\clipper_library.dll"
-a="E:\Final_Project\gamedev4-final-project\Library\PackageCache\com.unity.ext.nunit@1.0.6\net35\unity-custom\nunit.framework.dll"
-s="C:\Program Files\Unity\Hub\Editor\2021.2.14f1\Editor\Data\Managed\UnityEngine"
-s="E:\Final_Project\gamedev4-final-project\Library\PlayerScriptAssemblies"
-s="E:\Final_Project\gamedev4-final-project\Library\PackageCache\com.unity.burst@1.6.4"
-s="E:\Final_Project\gamedev4-final-project\Library\PackageCache\com.unity.burst@1.6.4\Unity.Burst.CodeGen"
-s="E:\Final_Project\gamedev4-final-project\Library\PackageCache\com.unity.visualscripting@1.7.7\Runtime\VisualScripting.Flow\Dependencies\NCalc"
-s="E:\Final_Project\gamedev4-final-project\Library\PackageCache\com.unity.cinemachine@2.8.4\Runtime\ThirdParty"
-s="E:\Final_Project\gamedev4-final-project\Library\PackageCache\com.unity.ext.nunit@1.0.6\net35\unity-custom"
-s="C:\Program Files\Unity\Hub\Editor\2021.2.14f1\Editor\Data\Managed\UnityEngine"
-s="C:\Program Files\Unity\Hub\Editor\2021.2.14f1\Editor\Data\NetStandard\ref\2.1.0"
-s="C:\Program Files\Unity\Hub\Editor\2021.2.14f1\Editor\Data\NetStandard\compat\2.1.0\shims\netstandard"
-s="C:\Program Files\Unity\Hub\Editor\2021.2.14f1\Editor\Data\NetStandard\Extensions\2.0.0"
-s="C:\Program Files\Unity\Hub\Editor\2021.2.14f1\Editor\Data\NetStandard\compat\2.1.0\shims\netfx"
-o="E:\Final_Project\gamedev4-final-project\Library\BuildPlayerData\Player"
-rn="RuntimeInitializeOnLoads.json"
-tn="TypeDb-All.json"
