%YAML 1.1
%TAG !u! tag:unity3d.com,2011:
--- !u!162 &1
EditorUserSettings:
  m_ObjectHideFlags: 0
  serializedVersion: 4
  m_ConfigSettings:
    RecentlyUsedSceneGuid-0:
      value: 070104040453080c5f5b5f76417b0b44474e497e297175687b7b4a32e6e53161
      flags: 0
    RecentlyUsedSceneGuid-1:
      value: 050406075c0d5b0b5b5e0f2016720c4444151b2e7c2b75342c791c32bbb06c6b
      flags: 0
    RecentlyUsedSceneGuid-2:
      value: 5553030706545f030f5e0a7548200b4413151c7a74292332287b4465e0b46c3a
      flags: 0
    RecentlyUsedSceneGuid-3:
      value: 57500c5357000b095d0b547242725d444f4e4a7b7f2a23687c794c66bbe33769
      flags: 0
    RecentlyUsedSceneGuid-4:
      value: 5a50520301070d08580b0e73157a5e44474e412c282c76697e7e1b31e1b96d6f
      flags: 0
    RecentlyUsedSceneGuid-5:
      value: 5454570757575f0f55565b7241270a444515407a282c7e347a284b32e4e63539
      flags: 0
    RecentlyUsedSceneGuid-6:
      value: 535205530750080f5a085e234475084446154178747b7760282f4430e7b0606a
      flags: 0
    RecentlyUsedSceneGuid-7:
      value: 0503575557005a0f0e595b70137b0b4412164c2c2e71773229784c35b4b83260
      flags: 0
    RecentlyUsedSceneGuid-8:
      value: 020503035c510b0c5856597544260944424e4d7d7f2b24602e2f4563e6b2313e
      flags: 0
    RecentlyUsedSceneGuid-9:
      value: 5a5003020107515d0c5c597a48740e44464f1a297d2d743474284b6bbab56c39
      flags: 0
    RecentlyUsedScenePath-0:
      value: 22424703114646680e0b0227036c6c111b07142f1f2b233e2867083debf42d
      flags: 0
    RecentlyUsedScenePath-1:
      value: 22424703114646680e0b0227036c6b150503596b6d69677e38271427fb
      flags: 0
    RecentlyUsedScenePath-2:
      value: 22424703114646680e0b0227036c78111b1228262d3168252320092a
      flags: 0
    UnityEditor.ShaderGraph.Blackboard:
      value: 18135939215a0a5004000b0e15254b524c030a3f2964643d120d1230e9e93a3fd6e826abbd2e2d293c4ead313b08042de6030a0afa240c0d020be94c4ba85e435d8715fa32c70d15d11612dacc11fee5d3c5d1fe9ab1b688908fecb0f9cfddf1eff4e7a1b1eae482f0fea6e6e1928b86d888ed909c968797a7cf
      flags: 0
    UnityEditor.ShaderGraph.FloatingWindowsLayout2:
      value: 181344140043005e1a220d3b1f364b524c0c5a27130c293326201334cee5322ca0bd30e8eb293a707b0fd0180b3d0a36fc0d3d04e649500d1002ee0b5dbd1d2c27c00ad113cb1e10e41f1addc80993b98d9884a69ae6d8f0d1cda9e8fbfefaf9f9dea3fdb9ade882f0f7b0e1e380cafbf2c3adc18e9cd285a2908b82ec869c8395949c9483d68a8d97ddbd90bf
      flags: 0
    UnityEditor.ShaderGraph.InspectorWindow:
      value: 18135939215a0a5004000b0e15254b524c1119263f2d6a722016393ce1eb3d36e5d339f9a5602b2e2c07a37e0901373ae01e0008f707250d171df81a53a541475f95548717f73713d91006c1c309d0effad0d2f9ddffa5828e91f0beb6fdd1cbfceba0b9f0b3bed8e8f5ade1ff8c978883d3f59e9e919c89eacfcc
      flags: 0
    UnityEditor.ShaderGraph.ToggleSettings:
      value: 18135d1527590858060c032302276919051e1a26296a7c243f3c187fa0e92708f0e220e0e22d09352a0bed30017c5b2be01f0c47b40219221f1ded0b12eb1f0127cc0bcc18c41a5e910d0edbc85193e0dadadbf8e8f9e8ced7dba5e0b6aaaca4dbfeabfef4eae1
      flags: 0
    vcSharedLogLevel:
      value: 0d5e400f0650
      flags: 0
  m_VCAutomaticAdd: 1
  m_VCDebugCom: 0
  m_VCDebugCmd: 0
  m_VCDebugOut: 0
  m_SemanticMergeMode: 2
  m_DesiredImportWorkerCount: 2
  m_StandbyImportWorkerCount: 2
  m_IdleImportWorkerShutdownDelay: 60000
  m_VCShowFailedCheckout: 1
  m_VCOverwriteFailedCheckoutAssets: 1
  m_VCProjectOverlayIcons: 1
  m_VCHierarchyOverlayIcons: 1
  m_VCOtherOverlayIcons: 1
  m_VCAllowAsyncUpdate: 1
  m_ArtifactGarbageCollection: 1
